amazon;https://en.wikipedia.org/wiki/Amazon:_Guardians_of_Eden
amfv;https://en.wikipedia.org/wiki/A_Mind_Forever_Voyaging
arx;https://en.wikipedia.org/wiki/Arx_Fatalis
atlantis;https://en.wikipedia.org/wiki/Indiana_Jones_and_the_Fate_of_Atlantis
baldurs-gate-1;https://en.wikipedia.org/wiki/Baldur%27s_Gate
baldurs-gate-2;https://en.wikipedia.org/wiki/Baldur%27s_Gate_II:_Shadows_of_Amn
ballyhoo;https://en.wikipedia.org/wiki/Ballyhoo_(video_game)
bargon;https://en.wikipedia.org/wiki/Bargon_Attack
bbvs;https://en.wikipedia.org/wiki/Beavis_and_Butt-head_in_Virtual_Stupidity
black-cauldron;https://en.wikipedia.org/wiki/The_Black_Cauldron_%28game%29
bladerunner;https://en.wikipedia.org/wiki/Blade_Runner_(1997_video_game)
blakestone;https://en.wikipedia.org/wiki/Blake_Stone:_Aliens_of_Gold
blueforece;https://en.wikipedia.org/wiki/Blue_Force
border-zone;https://en.wikipedia.org/wiki/Border_Zone_(video_game)
brokensword1;https://en.wikipedia.org/wiki/Broken_Sword:_The_Shadow_of_the_Templars
brokensword2;https://en.wikipedia.org/wiki/Broken_Sword_II:_The_Smoking_Mirror
bureaucracy;https://en.wikipedia.org/wiki/Bureaucracy_(video_game)
camelot;https://en.wikipedia.org/wiki/Conquests_of_Camelot
chex;https://en.wikipedia.org/wiki/Chex_Quest
comi;https://en.wikipedia.org/wiki/The_Curse_of_Monkey_Island
cruise;https://en.wikipedia.org/wiki/Cruise_for_a_Corpse
cutthroats;https://en.wikipedia.org/wiki/Cutthroats
deadline;https://en.wikipedia.org/wiki/Deadline_(video_game)
descent1;https://en.wikipedia.org/wiki/Descent_(video_game)
descent2;https://en.wikipedia.org/wiki/Descent_II
dig;https://en.wikipedia.org/wiki/The_Dig
discworld-1;https://en.wikipedia.org/wiki/Discworld_%28video_game%29
discworld-2;https://en.wikipedia.org/wiki/Discworld_II:_Missing_Presumed...%21%3F
doom;https://en.wikipedia.org/wiki/Doom_%28video_game%29
doom2;https://en.wikipedia.org/wiki/Doom_II
doom3;https://en.wikipedia.org/wiki/Doom_3
drbrain1;https://en.wikipedia.org/wiki/Castle_of_Dr._Brain
drbrain2;https://en.wikipedia.org/wiki/The_Island_of_Dr._Brain
dreamweb;https://en.wikipedia.org/wiki/DreamWeb
duke3d;https://en.wikipedia.org/wiki/Duke_Nukem_3D
dune2;https://en.wikipedia.org/wiki/Dune_II
ecoquest1;https://en.wikipedia.org/wiki/EcoQuest
ecoquest2;https://en.wikipedia.org/wiki/EcoQuest
enchanter;https://en.wikipedia.org/wiki/Enchanter_(video_game)
enemy-territory;https://en.wikipedia.org/wiki/Wolfenstein:_Enemy_Territory
etqw;https://en.wikipedia.org/wiki/Enemy_Territory:_Quake_Wars
eye-of-the-beholder1;https://en.wikipedia.org/wiki/Eye_of_the_Beholder_%28video_game%29
eye-of-the-beholder2;https://en.wikipedia.org/wiki/Eye_of_the_Beholder_%28video_game%29#Eye_of_the_Beholder_II:_The_Legend_of_Darkmoon
fairytales;https://en.wikipedia.org/wiki/Mixed-Up_Fairy_Tales
feeble-files;https://en.wikipedia.org/wiki/The_Feeble_Files
final-doom;https://en.wikipedia.org/wiki/Final_Doom
freddypharkas;https://en.wikipedia.org/wiki/Freddy_Pharkas:_Frontier_Pharmacist
freespace2;https://en.wikipedia.org/wiki/FreeSpace_2
fullthrottle;https://en.wikipedia.org/wiki/Full_Throttle_(1995_video_game)
future-wars;https://en.wikipedia.org/wiki/Future_Wars
gk1;https://en.wikipedia.org/wiki/Gabriel_Knight:_Sins_of_the_Fathers
gk2;http://en.wikipedia.org/wiki/The_Beast_Within:_A_Gabriel_Knight_Mystery
glory1;https://en.wikipedia.org/wiki/Quest_for_Glory:_So_You_Want_to_Be_a_Hero
glory2;https://en.wikipedia.org/wiki/Quest_for_Glory:_Trial_by_Fire
glory3;https://en.wikipedia.org/wiki/Quest_for_Glory_III:_Wages_of_War
glory4;https://en.wikipedia.org/wiki/Quest_for_Glory_IV:_Shadows_of_Darkness
gobliiins;https://en.wikipedia.org/wiki/Gobliiins
gobliins2;https://en.wikipedia.org/wiki/Gobliiins
goblins3;https://en.wikipedia.org/wiki/Gobliiins
goldrush;https://en.wikipedia.org/wiki/Gold_Rush%21
goose;https://en.wikipedia.org/wiki/Mixed-Up_Mother_Goose
grimfandango;https://en.wikipedia.org/wiki/Grim_Fandango
heretic;https://en.wikipedia.org/wiki/Heretic_(video_game)
heroes3;https://en.wikipedia.org/wiki/Heroes_of_Might_and_Magic_III
hexen;https://en.wikipedia.org/wiki/Hexen
hexen2;https://en.wikipedia.org/wiki/Hexen_II
hhgg;https://en.wikipedia.org/wiki/The_Hitchhiker%27s_Guide_to_the_Galaxy_(video_game)
hollywood-hijinx;https://en.wikipedia.org/wiki/Hollywood_Hijinx
hopkins;https://en.wikipedia.org/wiki/Hopkins_FBI
hoyle;https://en.wikipedia.org/wiki/Hoyle%27s_Official_Book_of_Games
hugo;https://en.wikipedia.org/wiki/Hugo%27s_House_of_Horrors
iceman;https://en.wikipedia.org/wiki/Codename:_ICEMAN
icewind-dale-1;https://en.wikipedia.org/wiki/Icewind_Dale
icewind-dale-2;https://en.wikipedia.org/wiki/Icewind_Dale_II
infidel;https://en.wikipedia.org/wiki/Infidel_(video_game)
inherit;https://en.wikipedia.org/wiki/Inherit_the_Earth:_Quest_for_the_Orb
ja;https://en.wikipedia.org/wiki/Star_Wars_Jedi_Knight:_Jedi_Academy
jk2;https://en.wikipedia.org/wiki/Star_Wars_Jedi_Knight_II:_Jedi_Outcast
jones-fast-lane;https://en.wikipedia.org/wiki/Jones_in_the_Fast_Lane
kingsquest1;https://en.wikipedia.org/wiki/King%27s_Quest_I:_Quest_for_the_Crown
kingsquest2;https://en.wikipedia.org/wiki/King%27s_Quest_II:_Romancing_the_Throne
kingsquest3;https://en.wikipedia.org/wiki/King%27s_Quest_III:_To_Heir_Is_Human
kingsquest4;https://en.wikipedia.org/wiki/King%27s_Quest_IV:_The_Perils_of_Rosella
kingsquest5;https://en.wikipedia.org/wiki/King%27s_Quest_V:_Absence_Makes_the_Heart_Go_Yonder!
kingsquest6;https://en.wikipedia.org/wiki/King%27s_Quest_VI:_Heir_Today,_Gone_Tomorrow
kingsquest7;https://en.wikipedia.org/wiki/King%27s_Quest_VII:_The_Princeless_Bride
kyrandia1;https://en.wikipedia.org/wiki/The_Legend_of_Kyrandia
kyrandia2;https://en.wikipedia.org/wiki/The_Legend_of_Kyrandia
kyrandia3;https://en.wikipedia.org/wiki/The_Legend_of_Kyrandia
lands-of-lore;https://en.wikipedia.org/wiki/Lands_of_Lore:_The_Throne_of_Chaos
larry1;https://en.wikipedia.org/wiki/Leisure_Suit_Larry_in_the_Land_of_the_Lounge_Lizards
larry2;https://en.wikipedia.org/wiki/Leisure_Suit_Larry_Goes_Looking_for_Love_%28in_Several_Wrong_Places%29
larry3;https://en.wikipedia.org/wiki/Leisure_Suit_Larry_3:_Passionate_Patti_in_Pursuit_of_the_Pulsating_Pectorals
larry5;https://en.wikipedia.org/wiki/Leisure_Suit_Larry_5:_Passionate_Patti_Does_a_Little_Undercover_Work
larry6;https://en.wikipedia.org/wiki/Leisure_Suit_Larry_6:_Shape_Up_or_Slip_Out%21
larry7;https://en.wikipedia.org/wiki/Leisure_Suit_Larry:_Love_for_Sail%21
last-crusade;https://en.wikipedia.org/wiki/Indiana_Jones_and_the_Last_Crusade:_The_Graphic_Adventure
laura-bow1;https://en.wikipedia.org/wiki/The_Colonel%27s_Bequest
laura-bow2;https://en.wikipedia.org/wiki/The_Dagger_of_Amon_Ra
leather-goddesses;https://en.wikipedia.org/wiki/Leather_Goddesses_of_Phobos
leather-goddesses2;https://en.wikipedia.org/wiki/Leather_Goddesses_of_Phobos_2:_Gas_Pump_Girls_Meet_the_Pulsating_Inconvenience_from_Planet_X!
lgeneral;https://en.wikipedia.org/wiki/Panzer_General
longbow;https://en.wikipedia.org/wiki/Conquests_of_the_Longbow:_The_Legend_of_Robin_Hood
loom;https://en.wikipedia.org/wiki/Loom_(video_game)
lost-in-time;https://en.wikipedia.org/wiki/Lost_in_Time_%28video_game%29
lurking-horror;https://en.wikipedia.org/wiki/The_Lurking_Horror
manhole;https://en.wikipedia.org/wiki/The_Manhole
manhunter1;https://en.wikipedia.org/wiki/Manhunter:_New_York
manhunter2;https://en.wikipedia.org/wiki/Manhunter_2:_San_Francisco
maniacmansion;https://en.wikipedia.org/wiki/Maniac_Mansion
marathon;https://en.wikipedia.org/wiki/Marathon_(video_game)
monkey;https://en.wikipedia.org/wiki/The_Secret_of_Monkey_Island
monkey2;https://en.wikipedia.org/wiki/Monkey_Island_2:_LeChuck%27s_Revenge
moonmist;https://en.wikipedia.org/wiki/Moonmist
morrowind;https://en.wikipedia.org/wiki/The_Elder_Scrolls_III:_Morrowind
mortville;https://en.wikipedia.org/wiki/Mortville_Manor
myst;https://en.wikipedia.org/wiki/Myst
mystery;https://en.wikipedia.org/wiki/Mystery_House
nebular;https://en.wikipedia.org/wiki/Rex_Nebular_and_the_Cosmic_Gender_Bender
neverhood;https://en.wikipedia.org/wiki/The_Neverhood
noahs-ark;https://en.wikipedia.org/wiki/Super_3D_Noah%27s_Ark
nomouth;https://en.wikipedia.org/wiki/I_Have_No_Mouth%2C_and_I_Must_Scream_%28computer_game%29
nord-and-bert;https://en.wikipedia.org/wiki/Nord_and_Bert_Couldn%27t_Make_Head_or_Tail_of_It
pajama-sam-gtpoad;https://en.wikipedia.org/wiki/Pajama_Sam
pajama-sam-lost-found;https://en.wikipedia.org/wiki/Pajama_Sam
pajama-sam-sockworks;https://en.wikipedia.org/wiki/Pajama_Sam
pajama-sam1;https://en.wikipedia.org/wiki/Pajama_Sam
pajama-sam2;https://en.wikipedia.org/wiki/Pajama_Sam
pajama-sam3;https://en.wikipedia.org/wiki/Pajama_Sam
personal-nightmare;https://en.wikipedia.org/wiki/Personal_Nightmare
phantasmagoria;https://en.wikipedia.org/wiki/Phantasmagoria_(video_game)
phantasmagoria2;https://en.wikipedia.org/wiki/Phantasmagoria:_A_Puzzle_of_Flesh
planescape-torment;https://en.wikipedia.org/wiki/Planescape:_Torment
planetfall;https://en.wikipedia.org/wiki/Planetfall
plundered-hearts;https://en.wikipedia.org/wiki/Plundered_Hearts
policequest1;https://en.wikipedia.org/wiki/Police_Quest
policequest2;https://en.wikipedia.org/wiki/Police_Quest
policequest3;https://en.wikipedia.org/wiki/Police_Quest
policequest4;https://en.wikipedia.org/wiki/Police_Quest
quake;https://en.wikipedia.org/wiki/Quake_(video_game)
quake2;https://en.wikipedia.org/wiki/Quake_II
quake3;https://en.wikipedia.org/wiki/Quake_3_Arena
quake4;https://en.wikipedia.org/wiki/Quake_4
return-to-zork;https://en.wikipedia.org/wiki/Return_to_Zork
ringworld1;https://en.wikipedia.org/wiki/Ringworld#Games
ringworld2;https://en.wikipedia.org/wiki/Ringworld#Games
riven;https://en.wikipedia.org/wiki/Riven
rott;https://en.wikipedia.org/wiki/Rise_of_the_Triad
rtcw;https://en.wikipedia.org/wiki/Return_to_Castle_Wolfenstein
sam-and-max;https://en.wikipedia.org/wiki/Sam_%26_Max_Hit_the_Road
seastalker;https://en.wikipedia.org/wiki/Seastalker
sherlock;https://en.wikipedia.org/wiki/Sherlock:_The_Riddle_of_the_Crown_Jewels
sherlock-holmes1;https://en.wikipedia.org/wiki/The_Lost_Files_of_Sherlock_Holmes
sherlock-holmes2;https://en.wikipedia.org/wiki/The_Lost_Files_of_Sherlock_Holmes
simon1;https://en.wikipedia.org/wiki/Simon_The_Sorcerer
simon2;https://en.wikipedia.org/wiki/Simon_the_Sorcerer_II:_The_Lion%2C_the_Wizard_and_the_Wardrobe
slater;https://en.wikipedia.org/wiki/Slater_%26_Charlie_Go_Camping
soltys;https://pl.wikipedia.org/wiki/So%C5%82tys_%28gra_komputerowa%29
sorcerer;https://en.wikipedia.org/wiki/Sorcerer_(video_game)
spacequest1;https://en.wikipedia.org/wiki/Space_Quest_I:_The_Sarien_Encounter
spacequest2;https://en.wikipedia.org/wiki/Space_Quest_II:_Vohaul%27s_Revenge
spacequest3;https://en.wikipedia.org/wiki/Space_Quest_III:_The_Pirates_of_Pestulon
spacequest4;https://en.wikipedia.org/wiki/Space_Quest_IV:_Roger_Wilco_and_the_Time_Rippers
spacequest5;https://en.wikipedia.org/wiki/Space_Quest_V:_The_Next_Mutation
spacequest6;https://en.wikipedia.org/wiki/Space_Quest_6:_The_Spinal_Frontier
spear-of-destiny;https://en.wikipedia.org/wiki/Spear_of_Destiny_(video_game)
spellbreaker;https://en.wikipedia.org/wiki/Spellbreaker
starcross;https://en.wikipedia.org/wiki/Starcross_(video_game)
stationfall;https://en.wikipedia.org/wiki/Stationfall
strife;https://en.wikipedia.org/wiki/Strife_%28video_game%29
suspect;https://en.wikipedia.org/wiki/Suspect_(video_game)
suspended;https://en.wikipedia.org/wiki/Suspended
syndicate;https://en.wikipedia.org/wiki/Syndicate_(video_game)
system-shock;https://en.wikipedia.org/wiki/System_Shock
t7g;https://en.wikipedia.org/wiki/The_7th_Guest
teenagent;https://en.wikipedia.org/wiki/Teenagent
tentacle;https://en.wikipedia.org/wiki/Day_of_the_Tentacle
theme-hospital;https://en.wikipedia.org/wiki/Theme_Hospital
toltecs;https://en.wikipedia.org/wiki/3_Skulls_of_the_Toltecs
tony;https://en.wikipedia.org/wiki/Tony_Tough_and_the_Night_of_Roasted_Moths
toonstruck;https://en.wikipedia.org/wiki/Toonstruck
touche;https://en.wikipedia.org/wiki/Touch%C3%A9:_The_Adventures_of_the_Fifth_Musketeer
trinity;https://en.wikipedia.org/wiki/Wishbringer
ttd;https://en.wikipedia.org/wiki/Transport_Tycoon
tyrian;https://en.wikipedia.org/wiki/Tyrian_(video_game)
ultima7;https://en.wikipedia.org/wiki/Ultima_VII:_The_Black_Gate
unreal;https://en.wikipedia.org/wiki/Unreal_(1998_video_game)
urban-runner;https://en.wikipedia.org/wiki/Urban_Runner
waxworks;https://en.wikipedia.org/wiki/Waxworks_(1992_video_game)
ween;https://en.wikipedia.org/wiki/The_Prophecy_(video_game)
wishbringer;https://en.wikipedia.org/wiki/Wishbringer
witness;https://en.wikipedia.org/wiki/The_Witness_(1983_video_game)
wolf3d;https://en.wikipedia.org/wiki/Wolfenstein_3D
woodruff;https://en.wikipedia.org/wiki/The_Bizarre_Adventures_of_Woodruff_and_the_Schnibble
xcom-ufo;https://en.wikipedia.org/wiki/UFO:_Enemy_Unknown
zak;https://en.wikipedia.org/wiki/Zak_McKracken_and_the_Alien_Mindbenders
zork;https://en.wikipedia.org/wiki/Zork
zork-inquisitor;https://en.wikipedia.org/wiki/Zork:_Grand_Inquisitor
zork-nemesis;https://en.wikipedia.org/wiki/Zork_Nemesis
